﻿// EVENT 1296
Name "Talk: Emily"

If(1,20,0,1,0)
 JumpToLabel("情報")
 0()
EndIf()
If(1,20,0,2,0)
 JumpToLabel("質問")
 0()
EndIf()
If(1,20,0,3,0)
 JumpToLabel("要求")
 0()
EndIf()
If(1,20,0,4,0)
 JumpToLabel("贈与")
 0()
EndIf()
DefineLabel("情報")
ChangeVariable(13,13,0,2,1,100)
If(1,13,0,10,2)
 ShowMessageFace("emily_fc2",1,0,2,1)
 ShowMessage("\\n<Emily>Emily is a high-ranking yoma. ♪")
 EndEventProcessing()
 0()
EndIf()
If(1,13,0,20,2)
 ShowMessageFace("emily_fc2",1,0,2,2)
 ShowMessage("\\n<Emily>Would you like a taste of Emily's tentacles...?")
 EndEventProcessing()
 0()
EndIf()
If(1,13,0,30,2)
 ShowMessageFace("emily_fc2",1,0,2,3)
 ShowMessage("\\n<Emily>If you behave yourself...\nI'll reward your penis with my tentacles. ♪")
 EndEventProcessing()
 0()
EndIf()
If(1,13,0,40,2)
 ShowMessageFace("emily_fc2",0,0,2,4)
 ShowMessage("\\n<Emily>Emily is not a squid!")
 EndEventProcessing()
 0()
EndIf()
If(1,13,0,50,2)
 ShowMessageFace("emily_fc2",1,0,2,5)
 ShowMessage("\\n<Emily>I want to play more and mooooore. ♪")
 EndEventProcessing()
 0()
EndIf()
If(1,13,0,60,2)
 ShowMessageFace("emily_fc2",1,0,2,6)
 ShowMessage("\\n<Emily>I'm making an idol debut with my mother. ♪")
 EndEventProcessing()
 0()
EndIf()
If(1,13,0,70,2)
 ShowMessageFace("emily_fc2",1,0,2,7)
 ShowMessage("\\n<Emily>Emily likes making boys like you pee...♪")
 EndEventProcessing()
 0()
EndIf()
If(1,13,0,80,2)
 ShowMessageFace("emily_fc2",1,0,2,8)
 ShowMessage("\\n<Emily>I want to travel the world. ♪")
 EndEventProcessing()
 0()
EndIf()
If(1,13,0,90,2)
 ShowMessageFace("emily_fc2",1,0,2,9)
 ShowMessage("\\n<Emily>Where should we play after becoming magical girls...?")
 EndEventProcessing()
 0()
EndIf()
If(1,13,0,100,2)
 ShowMessageFace("emily_fc2",1,0,2,10)
 ShowMessage("\\n<Emily>I want to manipulate sticky flesh like my mother too...")
 EndEventProcessing()
 0()
EndIf()
DefineLabel("質問")
ChangeVariable(13,13,0,2,1,50)
If(1,13,0,10,2)
 ShowMessageFace("emily_fc2",1,0,2,11)
 ShowMessage("\\n<Emily>Do you want to be Emily's toy?")
 ShowChoices(strings("I do","I don't","I'll make you my toy"),0)
 IfPlayerPicksChoice(0,"なりたい")
  ShowMessageFace("emily_fc2",2,0,2,12)
  ShowMessage("\\n<Emily>In that case, please show me your penis...\nI'll toy with it a lot. ♪")
  355("change_friend(10)")
  0()
 IfPlayerPicksChoice(1,"なりたくない")
  ShowMessageFace("emily_fc2",1,0,2,13)
  ShowMessage("\\n<Emily>Then...I'll force you to be my toy. ♪")
  0()
 IfPlayerPicksChoice(2,"オモチャにしてやる")
  ShowMessageFace("emily_fc2",4,0,2,14)
  ShowMessage("\\n<Emily>I really hate you!")
  355("change_friend(-5)")
  0()
 404()
 EndEventProcessing()
 0()
EndIf()
If(1,13,0,20,2)
 ShowMessageFace("emily_fc2",1,0,2,15)
 ShowMessage("\\n<Emily>Do you know what I dream of being in the future?")
 ShowChoices(strings("Idol","Monster Lord","Scholar"),0)
 IfPlayerPicksChoice(0,"アイドル")
  ShowMessageFace("emily_fc2",2,0,2,16)
  ShowMessage("\\n<Emily>Yes! Emily wants to be an idol...♪")
  355("change_friend(10)")
  0()
 IfPlayerPicksChoice(1,"魔王")
  ShowMessageFace("emily_fc2",1,0,2,17)
  ShowMessage("\\n<Emily>That's my mother's dream.")
  0()
 IfPlayerPicksChoice(2,"学者")
  ShowMessageFace("emily_fc2",4,0,2,18)
  ShowMessage("\\n<Emily>That's impossible for Emily's head!")
  355("change_friend(-5)")
  0()
 404()
 EndEventProcessing()
 0()
EndIf()
If(1,13,0,30,2)
 ShowMessageFace("emily_fc2",1,0,2,19)
 ShowMessage("\\n<Emily>Emily wants to be an idol.\nWill you give her your support...?")
 ShowChoices(strings("I'll support you","I won't support you","I'll be an idol"),0)
 IfPlayerPicksChoice(0,"応援する")
  ShowMessageFace("emily_fc2",2,0,2,20)
  ShowMessage("\\n<Emily>Aha, I'm happy...♪")
  355("change_friend(10)")
  0()
 IfPlayerPicksChoice(1,"応援しない")
  ShowMessageFace("emily_fc2",4,0,2,21)
  ShowMessage("\\n<Emily>Meanie!")
  355("change_friend(-5)")
  0()
 IfPlayerPicksChoice(2,"僕がアイドルになる")
  ShowMessageFace("emily_fc2",4,0,2,22)
  ShowMessage("\\n<Emily>I'll obliterate my rivals...!")
  355("change_friend(-5)")
  0()
 404()
 EndEventProcessing()
 0()
EndIf()
If(1,13,0,40,2)
 ShowMessageFace("emily_fc2",1,0,2,23)
 ShowMessage("\\n<Emily>Emily wants to live in a biiiiig castle. ♪")
 ShowChoices(strings("Go for it","That's impossible","How about a Pocket Monster Lord's Castle?"),0)
 IfPlayerPicksChoice(0,"がんばれ")
  ShowMessageFace("emily_fc2",3,0,2,24)
  ShowMessage("\\n<Emily>Is there some way I can do it...?")
  0()
 IfPlayerPicksChoice(1,"無理だ")
  ShowMessageFace("emily_fc2",4,0,2,25)
  ShowMessage("\\n<Emily>Hmph! I know that!")
  355("change_friend(-5)")
  0()
 IfPlayerPicksChoice(2,"ポケット魔王城")
  ShowMessageFace("emily_fc2",2,0,2,26)
  ShowMessage("\\n<Emily>Is there something like that?\nEmily wants to live there too!")
  355("change_friend(10)")
  0()
 404()
 EndEventProcessing()
 0()
EndIf()
If(1,13,0,50,2)
 ShowMessageFace("emily_fc2",1,0,2,27)
 ShowMessage("\\n<Emily>Twintail tentacles are very fashionable, aren't they?")
 ShowChoices(strings("They're fashionable","They're subtle","They're a tragedy"),0)
 IfPlayerPicksChoice(0,"オシャレだ")
  ShowMessageFace("emily_fc2",1,0,2,28)
  ShowMessage("\\n<Emily>Ehehe...aren't they great?\nI'll twist them around, and tighten a lot. ♪")
  355("change_friend(10)")
  0()
 IfPlayerPicksChoice(1,"微妙だ")
  ShowMessageFace("emily_fc2",4,0,2,29)
  ShowMessage("\\n<Emily>What?! I really hate you!")
  355("change_friend(-5)")
  0()
 IfPlayerPicksChoice(2,"悲惨だ")
  ShowMessageFace("emily_fc2",0,0,2,30)
  ShowMessage("\\n<Emily>Eh...?! Aren't you being too mean...?\nI'm starting to feel a bit uncomfortable for some reason...")
  0()
 404()
 EndEventProcessing()
 0()
EndIf()
DefineLabel("要求")
ChangeVariable(13,13,0,2,1,30)
If(1,13,0,10,2)
 If(8,414)
  ShowMessageFace("emily_fc2",1,0,2,31)
  ShowMessage("\\n<Emily>Emily would like to eat some chocolate...")
  ChangeVariable(24,24,0,3,0,414,0)
  ShowMessageFace("",0,0,2,32)
  ShowMessage("Do you want to give some \\ii[414]? (Have:\\V[24])")
  ShowChoices(strings("Yes","No"),2)
  IfPlayerPicksChoice(0,"Yes")
   ShowMessageFace("emily_fc2",2,0,2,33)
   ShowMessage("\\n<Emily>Aha, I'm happy...♪")
   ChangeInventory_Item(414,1,0,1)
   355("change_friend(20)")
   EndEventProcessing()
   0()
  IfPlayerPicksChoice(1,"No")
   ShowMessageFace("emily_fc2",4,0,2,34)
   ShowMessage("\\n<Emily>I hate you!")
   EndEventProcessing()
   0()
  404()
  0()
 Else()
  ChangeVariable(13,13,0,0,20)
  0()
 EndIf()
 0()
EndIf()
If(1,13,0,20,2)
 If(8,417)
  ShowMessageFace("emily_fc2",1,0,2,35)
  ShowMessage("\\n<Emily>Emily would like to eat some cake...")
  ChangeVariable(24,24,0,3,0,417,0)
  ShowMessageFace("",0,0,2,36)
  ShowMessage("Do you want to give a \\ii[417]? (Have:\\V[24])")
  ShowChoices(strings("Yes","No"),2)
  IfPlayerPicksChoice(0,"Yes")
   ShowMessageFace("emily_fc2",2,0,2,37)
   ShowMessage("\\n<Emily>Aha, I'm happy...♪")
   ChangeInventory_Item(417,1,0,1)
   355("change_friend(30)")
   EndEventProcessing()
   0()
  IfPlayerPicksChoice(1,"No")
   ShowMessageFace("emily_fc2",4,0,2,38)
   ShowMessage("\\n<Emily>I hate you!")
   EndEventProcessing()
   0()
  404()
  0()
 Else()
  ChangeVariable(13,13,0,0,30)
  0()
 EndIf()
 0()
EndIf()
If(1,13,0,30,2)
 ShowMessageFace("emily_fc2",1,0,2,39)
 ShowMessage("\\n<Emily>Emily would like an allowance...")
 If(7,1350,0)
  ChangeVariable(24,24,0,3,7,2,0)
  ShowMessageFace("",0,0,2,40)
  ShowMessage("Do you want to give 1350G? (Remaining:\\V[24])")
  ShowChoices(strings("Yes","No"),2)
  IfPlayerPicksChoice(0,"Yes")
   ShowMessageFace("emily_fc2",2,0,2,41)
   ShowMessage("\\n<Emily>Aha, I'm happy...♪")
   125(1,0,1350)
   355("change_friend(25)")
   EndEventProcessing()
   0()
  IfPlayerPicksChoice(1,"No")
   ShowMessageFace("emily_fc2",4,0,2,42)
   ShowMessage("\\n<Emily>I hate you!")
   EndEventProcessing()
   0()
  404()
  0()
 Else()
  ShowMessageFace("emily_fc2",3,0,2,43)
  ShowMessage("\\n<Emily>...Hey, you shouldn't be poor!")
  EndEventProcessing()
  0()
 EndIf()
 0()
EndIf()
DefineLabel("贈与")
ChangeVariable(13,13,0,2,1,30)
If(1,25,0,1,0)
 ChangeVariable(13,13,0,0,30)
 ChangeVariable(25,25,0,0,0)
 0()
EndIf()
If(1,25,0,2,0)
 ChangeVariable(13,13,0,2,1,20)
 ChangeVariable(25,25,0,0,0)
 0()
EndIf()
If(1,13,0,10,2)
 ShowMessageFace("emily_fc2",1,0,2,44)
 ShowMessage("\\n<Emily>Take good care of Emily's tentacle!")
 250(bytes(0x04,0x08,0x6f,0x3a,0x0c,0x52,0x50,0x47,0x3a,0x3a,0x53,0x45,0x08,0x3a,0x0a,0x40,0x6e,0x61,0x6d,0x65,0x49,0x22,0x0a,0x49,0x74,0x65,0x6d,0x31,0x06,0x3a,0x06,0x45,0x54,0x3a,0x0b,0x40,0x70,0x69,0x74,0x63,0x68,0x69,0x69,0x3a,0x0c,0x40,0x76,0x6f,0x6c,0x75,0x6d,0x65,0x69,0x55))
 ChangeInventory_Item(202,0,0,1)
 ShowMessageFace("",0,0,2,45)
 ShowMessage("Emily gave you a \\ii[202]!")
 EndEventProcessing()
 0()
EndIf()
If(1,13,0,20,2)
 ShowMessageFace("emily_fc2",1,0,2,46)
 ShowMessage("\\n<Emily>This drink is full of energy!")
 250(bytes(0x04,0x08,0x6f,0x3a,0x0c,0x52,0x50,0x47,0x3a,0x3a,0x53,0x45,0x08,0x3a,0x0a,0x40,0x6e,0x61,0x6d,0x65,0x49,0x22,0x0a,0x49,0x74,0x65,0x6d,0x31,0x06,0x3a,0x06,0x45,0x54,0x3a,0x0b,0x40,0x70,0x69,0x74,0x63,0x68,0x69,0x69,0x3a,0x0c,0x40,0x76,0x6f,0x6c,0x75,0x6d,0x65,0x69,0x55))
 ChangeInventory_Item(7,0,0,1)
 ShowMessageFace("",0,0,2,47)
 ShowMessage("Emily gave you a \\ii[7]!")
 EndEventProcessing()
 0()
EndIf()
If(1,13,0,30,2)
 ShowMessageFace("emily_fc2",1,0,2,48)
 ShowMessage("\\n<Emily>Let's play together with this money!")
 250(bytes(0x04,0x08,0x6f,0x3a,0x0c,0x52,0x50,0x47,0x3a,0x3a,0x53,0x45,0x08,0x3a,0x0a,0x40,0x6e,0x61,0x6d,0x65,0x49,0x22,0x0a,0x49,0x74,0x65,0x6d,0x31,0x06,0x3a,0x06,0x45,0x54,0x3a,0x0b,0x40,0x70,0x69,0x74,0x63,0x68,0x69,0x69,0x3a,0x0c,0x40,0x76,0x6f,0x6c,0x75,0x6d,0x65,0x69,0x55))
 125(0,0,2250)
 ShowMessageFace("",0,0,2,49)
 ShowMessage("Emily gave you 2250G!")
 EndEventProcessing()
 0()
EndIf()
0()
