// EVENT 2040
Name "Seduction: Dark Elf Mage"

If(0,25,1)
 EndEventProcessing()
 0()
EndIf()
355("$game_troop.lose_event_id = 3040")
ChangeVariable(26,26,0,3,3,1,4)
ChangeVariable(26,26,4,0,10)
ShowMessageFace("delh_b_fc1",2,0,2,1)
ShowMessage("\\n<Dark Elf>I'm in trouble...")
ShowMessageFace("delh_b_fc1",0,0,2,2)
ShowMessage("\\n<Dark Elf>Hey, don't you want to feel exquisite pleasure?\nIf you stop attacking, I'll let you experience it...")
ShowMessageFace("",0,0,2,3)
ShowMessage("One of the Dark Elf's tentacles reaches toward Luka...")
ChangeSwitch(98,98,0)
ChangeSwitch(96,96,0)
ShowChoices(strings("Ignore her","Give in to temptation"),1)
IfPlayerPicksChoice(0,"Ignore her")
 ShowMessageFace("",0,0,2,4)
 ShowMessage("Luka resists her temptation!")
 RunCommonEvent(1999)
 EndEventProcessing()
 0()
IfPlayerPicksChoice(1,"誘惑に乗る")
 0()
404()
ShowMessageFace("delh_b_fc1",1,0,2,5)
ShowMessage("\\n<Dark Elf>Ufufu, it seems you want to taste it.\nWell then, as you wish...")
250(bytes(0x04,0x08,0x6f,0x3a,0x0c,0x52,0x50,0x47,0x3a,0x3a,0x53,0x45,0x08,0x3a,0x0a,0x40,0x6e,0x61,0x6d,0x65,0x49,0x22,0x16,0x6d,0x6f,0x6e,0x5f,0x65,0x72,0x6f,0x5f,0x6d,0x61,0x6b,0x69,0x74,0x75,0x6b,0x69,0x33,0x06,0x3a,0x06,0x45,0x54,0x3a,0x0b,0x40,0x70,0x69,0x74,0x63,0x68,0x69,0x69,0x3a,0x0c,0x40,0x76,0x6f,0x6c,0x75,0x6d,0x65,0x69,0x69))
355("battler_graphic_hide")
PictureDisplay(5,"ev_delh_b_h1a",0,0,0,0,100,100,255,0)
ShowMessageFace("",0,0,2,6)
ShowMessage("The Dark Elf's tentacles wrap around Luka!")
ShowMessage("Luka has been bound by her tentacles!")
ShowMessageFace("delh_b_fc1",1,0,2,7)
ShowMessage("\\n<Dark Elf>Fufu, you can't move, can you?\nNow, let me milk out all your semen...")
ShowMessageFace("delh_b_fc1",1,0,2,8)
ShowMessage("\\n<Dark Elf>Don't be afraid. This tentacle is design to milk out semen.\nIt feels so good, you'll melt away...")
PictureDisplay(5,"ev_delh_b_h2a",0,0,0,0,100,100,255,0)
ShowMessageFace("",0,0,2,9)
ShowMessage("The Dark Elf's tentacle approaches Luka's penis...")
ChangeVariable(26,26,3,0,3)
250(bytes(0x04,0x08,0x6f,0x3a,0x0c,0x52,0x50,0x47,0x3a,0x3a,0x53,0x45,0x08,0x3a,0x0a,0x40,0x6e,0x61,0x6d,0x65,0x49,0x22,0x13,0x6d,0x6f,0x6e,0x5f,0x65,0x72,0x6f,0x5f,0x62,0x75,0x63,0x68,0x75,0x31,0x06,0x3a,0x06,0x45,0x54,0x3a,0x0b,0x40,0x70,0x69,0x74,0x63,0x68,0x69,0x69,0x3a,0x0c,0x40,0x76,0x6f,0x6c,0x75,0x6d,0x65,0x69,0x69))
PictureDisplay(5,"ev_delh_b_h3a",0,0,0,0,100,100,255,0)
311(0,1,1,1,26,true)
ShowMessageFace("",0,0,2,10)
ShowMessage("In one quick motion, it sucks in his penis!\\D")
ShowMessage("Luka takes \\V[26] damage!")
ChangeVariable(27,27,0,3,3,1,2)
If(1,27,0,0,0)
 JumpToLabel("射精1")
 0()
EndIf()
ShowMessageFace("",0,0,2,11)
ShowMessage("\\n<Luka>Aaahhh...!")
ShowMessageFace("",0,0,2,12)
ShowMessage("All of my energy fades in an instant at the sudden sensation.")
ShowChoices(strings("Struggle","Give in to tentacle"),1)
IfPlayerPicksChoice(0,"もがく")
 ShowMessageFace("",0,0,2,13)
 ShowMessage("Luka tries to struggle!")
 ShowMessage("But he's too weak to break free.")
 ShowMessageFace("delh_b_fc1",1,0,2,14)
 ShowMessage("\\n<Dark Elf>Oh my, are you trying to resist?\nYou can't fight the pleasure, anyway...")
 0()
IfPlayerPicksChoice(1,"触手に嫐ってもらう")
 ShowMessageFace("",0,0,2,15)
 ShowMessage("Luka surrenders to the pleasure...")
 ShowMessageFace("delh_b_fc1",1,0,2,16)
 ShowMessage("\\n<Dark Elf>Ufufu, so you can't resist the pleasure?\nIt's such a miserable, wonderful feeling after all.")
 0()
404()
250(bytes(0x04,0x08,0x6f,0x3a,0x0c,0x52,0x50,0x47,0x3a,0x3a,0x53,0x45,0x08,0x3a,0x0a,0x40,0x6e,0x61,0x6d,0x65,0x49,0x22,0x13,0x6d,0x6f,0x6e,0x5f,0x65,0x72,0x6f,0x5f,0x62,0x75,0x63,0x68,0x75,0x31,0x06,0x3a,0x06,0x45,0x54,0x3a,0x0b,0x40,0x70,0x69,0x74,0x63,0x68,0x69,0x69,0x3a,0x0c,0x40,0x76,0x6f,0x6c,0x75,0x6d,0x65,0x69,0x69))
311(0,1,1,1,26,true)
ShowMessageFace("",0,0,2,17)
ShowMessage("The tentacle sucks on Luka's penis!")
ShowMessage("His energy drains as it sucks!\\D")
ShowMessage("Luka takes \\V[26] damage!")
ChangeVariable(27,27,0,3,3,1,2)
If(1,27,0,0,0)
 JumpToLabel("射精1")
 0()
EndIf()
ShowMessageFace("delh_b_fc1",1,0,2,18)
ShowMessage("\\n<Dark Elf>I'm sure you realize that your energy is being sucked...\nHow does it feel so be absorbed by a tentacle?")
250(bytes(0x04,0x08,0x6f,0x3a,0x0c,0x52,0x50,0x47,0x3a,0x3a,0x53,0x45,0x08,0x3a,0x0a,0x40,0x6e,0x61,0x6d,0x65,0x49,0x22,0x13,0x6d,0x6f,0x6e,0x5f,0x65,0x72,0x6f,0x5f,0x62,0x75,0x63,0x68,0x75,0x31,0x06,0x3a,0x06,0x45,0x54,0x3a,0x0b,0x40,0x70,0x69,0x74,0x63,0x68,0x69,0x69,0x3a,0x0c,0x40,0x76,0x6f,0x6c,0x75,0x6d,0x65,0x69,0x69))
311(0,1,1,1,26,true)
ShowMessageFace("",0,0,2,19)
ShowMessage("The tentacle squirms as it sucks on Luka!")
ShowMessage("In trade for his energy, pleasure overwhelms him!\\D")
ShowMessage("Luka takes \\V[26] damage!")
ChangeVariable(27,27,0,3,3,1,2)
If(1,27,0,0,0)
 JumpToLabel("射精1")
 0()
EndIf()
ShowMessageFace("delh_b_fc1",1,0,2,20)
ShowMessage("\\n<Dark Elf>All men come as they're drained.\nYou can't stand it any longer either, can you?")
250(bytes(0x04,0x08,0x6f,0x3a,0x0c,0x52,0x50,0x47,0x3a,0x3a,0x53,0x45,0x08,0x3a,0x0a,0x40,0x6e,0x61,0x6d,0x65,0x49,0x22,0x13,0x6d,0x6f,0x6e,0x5f,0x65,0x72,0x6f,0x5f,0x62,0x75,0x63,0x68,0x75,0x31,0x06,0x3a,0x06,0x45,0x54,0x3a,0x0b,0x40,0x70,0x69,0x74,0x63,0x68,0x69,0x69,0x3a,0x0c,0x40,0x76,0x6f,0x6c,0x75,0x6d,0x65,0x69,0x69))
311(0,1,1,1,26,true)
ShowMessageFace("",0,0,2,21)
ShowMessage("As the tentacle sucks on Luka, he's overcome by a strange sensation!")
ShowMessage("As his energy is drained, he's brought to a climax!\\D")
ShowMessage("Luka takes \\V[26] damage!")
ChangeVariable(27,27,0,3,3,1,2)
If(1,27,0,0,0)
 JumpToLabel("射精1")
 0()
EndIf()
DefineLabel("射精1")
ShowMessageFace("",0,0,2,22)
ShowMessage("\\n<Luka>Oh no, I'm coming... Aaah...")
RunCommonEvent(104)
PictureDisplay(5,"ev_delh_b_h4a",0,0,0,0,100,100,255,0)
RunCommonEvent(105)
ShowMessageFace("",0,0,2,23)
ShowMessage("I suddenly climax as the tentacle sucks on me.")
ShowMessage("My body trembles in weakness as I spurt out semen.")
ShowMessageFace("delh_b_fc1",0,0,2,24)
ShowMessage("\\n<Dark Elf>Fufu, you came while being drained.\nYou enjoyed it, didn't you? Fufu.")
RunCommonEvent(2000)
EndEventProcessing()
0()
