﻿// EVENT 2364
Name "Seduction: Valkyrie"

355("$game_troop.lose_event_id = 3364")
ChangeVariable(26,26,0,3,3,1,4)
ChangeVariable(26,26,4,0,10)
ShowMessageFace("valkyrie_fc1",0,0,2,1)
ShowMessage("\\n<Valkyrie>To be pushed this far...\nYou leave me no choice but to torment you with my sexual techniques.")
355("battler_graphic_hide")
PictureDisplay(5,"ev_valkyrie_ha1",0,0,0,0,100,100,255,0)
ShowMessageFace("",0,0,2,2)
ShowMessage("Valkyrie binds Luka with a ring of light!\nLike that, she pushes against Luka's waist, sliding his penis between her thighs!")
ShowMessageFace("valkyrie_fc1",3,0,2,3)
ShowMessage("\\n<Valkyrie>I won't let you escape.\nLike this, you will shoot your semen onto my thighs...")
ChangeSwitch(98,98,0)
ChangeSwitch(96,96,0)
ShowChoices(strings("Struggle","Let her continue"),1)
IfPlayerPicksChoice(0,null)
 ShowMessageFace("",0,0,2,4)
 ShowMessage("Luka struggles violently, and escapes from Valkyrie's restraint!")
 RunCommonEvent(1999)
 EndEventProcessing()
 0()
IfPlayerPicksChoice(1,null)
 0()
404()
ShowMessageFace("valkyrie_fc1",3,0,2,5)
ShowMessage("\\n<Valkyrie>I'll tighten around your penis until you ejaculate.\nPlease come quickly...")
ChangeVariable(26,26,3,0,3)
250(bytes(0x04,0x08,0x6f,0x3a,0x0c,0x52,0x50,0x47,0x3a,0x3a,0x53,0x45,0x08,0x3a,0x0a,0x40,0x6e,0x61,0x6d,0x65,0x49,0x22,0x12,0x6d,0x6f,0x6e,0x5f,0x65,0x72,0x6f,0x5f,0x6b,0x6f,0x6b,0x69,0x31,0x06,0x3a,0x06,0x45,0x54,0x3a,0x0b,0x40,0x70,0x69,0x74,0x63,0x68,0x69,0x69,0x3a,0x0c,0x40,0x76,0x6f,0x6c,0x75,0x6d,0x65,0x69,0x69))
311(0,1,1,1,26,true)
ShowMessageFace("",0,0,2,6)
ShowMessage("Valkyrie's wings wrap around Luka in order to hold him!\nLike that, Valkyrie tightly squeezes his penis between her thighs!\\D")
ShowMessage("Luka takes \\V[26] damage!")
ChangeVariable(27,27,0,3,3,1,2)
If(1,27,0,0,0)
 JumpToLabel("射精1")
 0()
EndIf()
ShowMessageFace("valkyrie_fc1",3,0,2,7)
ShowMessage("\\n<Valkyrie>If I tighten like this, can you withstand it...?")
250(bytes(0x04,0x08,0x6f,0x3a,0x0c,0x52,0x50,0x47,0x3a,0x3a,0x53,0x45,0x08,0x3a,0x0a,0x40,0x6e,0x61,0x6d,0x65,0x49,0x22,0x12,0x6d,0x6f,0x6e,0x5f,0x65,0x72,0x6f,0x5f,0x6b,0x6f,0x6b,0x69,0x31,0x06,0x3a,0x06,0x45,0x54,0x3a,0x0b,0x40,0x70,0x69,0x74,0x63,0x68,0x69,0x69,0x3a,0x0c,0x40,0x76,0x6f,0x6c,0x75,0x6d,0x65,0x69,0x69))
311(0,1,1,1,26,true)
ShowMessageFace("",0,0,2,8)
ShowMessage("Valkyrie tightens her thighs around Luka's penis, torturing him with her intercrural!\\D")
ShowMessage("Luka takes \\V[26] damage!")
ChangeVariable(27,27,0,3,3,1,2)
If(1,27,0,0,0)
 JumpToLabel("射精1")
 0()
EndIf()
ShowMessageFace("valkyrie_fc1",3,0,2,9)
ShowMessage("\\n<Valkyrie>How pitiful, being tormented like this...")
250(bytes(0x04,0x08,0x6f,0x3a,0x0c,0x52,0x50,0x47,0x3a,0x3a,0x53,0x45,0x08,0x3a,0x0a,0x40,0x6e,0x61,0x6d,0x65,0x49,0x22,0x12,0x6d,0x6f,0x6e,0x5f,0x65,0x72,0x6f,0x5f,0x6b,0x6f,0x6b,0x69,0x31,0x06,0x3a,0x06,0x45,0x54,0x3a,0x0b,0x40,0x70,0x69,0x74,0x63,0x68,0x69,0x69,0x3a,0x0c,0x40,0x76,0x6f,0x6c,0x75,0x6d,0x65,0x69,0x69))
311(0,1,1,1,26,true)
ShowMessageFace("",0,0,2,10)
ShowMessage("Valkyrie s thighs squeeze tightly around Luka's penis!\\D")
ShowMessage("Luka takes \\V[26] damage!")
ChangeVariable(27,27,0,3,3,1,2)
If(1,27,0,0,0)
 JumpToLabel("射精1")
 0()
EndIf()
ShowMessageFace("valkyrie_fc1",3,0,2,11)
ShowMessage("\\n<Valkyrie>Finishing between my thighs, how unsightly...")
250(bytes(0x04,0x08,0x6f,0x3a,0x0c,0x52,0x50,0x47,0x3a,0x3a,0x53,0x45,0x08,0x3a,0x0a,0x40,0x6e,0x61,0x6d,0x65,0x49,0x22,0x12,0x6d,0x6f,0x6e,0x5f,0x65,0x72,0x6f,0x5f,0x6b,0x6f,0x6b,0x69,0x31,0x06,0x3a,0x06,0x45,0x54,0x3a,0x0b,0x40,0x70,0x69,0x74,0x63,0x68,0x69,0x69,0x3a,0x0c,0x40,0x76,0x6f,0x6c,0x75,0x6d,0x65,0x69,0x69))
311(0,1,1,1,26,true)
ShowMessageFace("",0,0,2,12)
ShowMessage("Valkyrie crushes Luka's penis as she intensely rubs it between her soft thighs!\\D")
ShowMessage("Luka takes \\V[26] damage!")
ChangeVariable(27,27,0,3,3,1,2)
If(1,27,0,0,0)
 JumpToLabel("射精1")
 0()
EndIf()
DefineLabel("射精1")
ShowMessageFace("",0,0,2,13)
ShowMessage("\\n<Luka>No, I'm coming... Aaaah...")
RunCommonEvent(104)
PictureDisplay(5,"ev_valkyrie_ha2",0,0,0,0,100,100,255,0)
RunCommonEvent(105)
ShowMessageFace("",0,0,2,14)
ShowMessage("I ejaculate from the overwhelming pleasure of having my penis caught between Valkyrie's soft thighs. Her thighs are stained with my sticky semen.")
ShowMessageFace("valkyrie_fc1",3,0,2,15)
ShowMessage("\\n<Valkyrie>You've stained an angel's thighs with your semen... You truly are a sinful human...")
RunCommonEvent(2000)
EndEventProcessing()
0()
