﻿// EVENT 4341
Name "Slime Bess 1"

If(0,25,1)
 221()
 PictureClear(5)
 PictureClear(6)
 ShowMessageFace("",0,0,2,0)
 ShowMessage("......")
 242(2)
 Wait(120)
 241(bytes(0x04,0x08,0x6f,0x3a,0x0d,0x52,0x50,0x47,0x3a,0x3a,0x42,0x47,0x4d,0x08,0x3a,0x0a,0x40,0x6e,0x61,0x6d,0x65,0x49,0x22,0x0c,0x63,0x61,0x73,0x74,0x6c,0x65,0x36,0x06,0x3a,0x06,0x45,0x54,0x3a,0x0c,0x40,0x76,0x6f,0x6c,0x75,0x6d,0x65,0x69,0x69,0x3a,0x0b,0x40,0x70,0x69,0x74,0x63,0x68,0x69,0x69))
 EndEventProcessing()
 0()
EndIf()
PictureDisplay(5,"80_slimelord_st02",0,0,0,0,100,100,255,0)
ShowMessageFace("slimelord_fc1",1,0,2,1)
ShowMessage("\\n<Bess>Want me to make you feel good?\nWell then, I'll make you feel really good...♪")
ShowMessageFace("",0,0,2,2)
ShowMessage("\\n<Luka>Unnngh...")
250(bytes(0x04,0x08,0x6f,0x3a,0x0c,0x52,0x50,0x47,0x3a,0x3a,0x53,0x45,0x08,0x3a,0x0a,0x40,0x6e,0x61,0x6d,0x65,0x49,0x22,0x13,0x6d,0x6f,0x6e,0x5f,0x65,0x72,0x6f,0x5f,0x73,0x6c,0x69,0x6d,0x65,0x33,0x06,0x3a,0x06,0x45,0x54,0x3a,0x0b,0x40,0x70,0x69,0x74,0x63,0x68,0x69,0x69,0x3a,0x0c,0x40,0x76,0x6f,0x6c,0x75,0x6d,0x65,0x69,0x69))
241(bytes(0x04,0x08,0x6f,0x3a,0x0d,0x52,0x50,0x47,0x3a,0x3a,0x42,0x47,0x4d,0x08,0x3a,0x0a,0x40,0x6e,0x61,0x6d,0x65,0x49,0x22,0x09,0x65,0x72,0x6f,0x31,0x06,0x3a,0x06,0x45,0x54,0x3a,0x0c,0x40,0x76,0x6f,0x6c,0x75,0x6d,0x65,0x69,0x69,0x3a,0x0b,0x40,0x70,0x69,0x74,0x63,0x68,0x69,0x69))
245(bytes(0x04,0x08,0x6f,0x3a,0x0d,0x52,0x50,0x47,0x3a,0x3a,0x42,0x47,0x53,0x08,0x3a,0x0a,0x40,0x6e,0x61,0x6d,0x65,0x49,0x22,0x17,0x6d,0x6f,0x6e,0x5f,0x68,0x73,0x65,0x61,0x6e,0x31,0x38,0x5f,0x73,0x6c,0x69,0x6d,0x65,0x31,0x06,0x3a,0x06,0x45,0x54,0x3a,0x0c,0x40,0x76,0x6f,0x6c,0x75,0x6d,0x65,0x69,0x55,0x3a,0x0b,0x40,0x70,0x69,0x74,0x63,0x68,0x69,0x69))
PictureDisplay(5,"ev_slimelord_ha1",0,0,0,0,100,100,255,0)
ShowMessageFace("",0,0,2,3)
ShowMessage("Bess' slime leans over my body.\nThe feeling of her slime wraps around my whole body.")
ShowMessageFace("",0,0,2,4)
ShowMessage("A strange feeling flows through me as her sticky slime covers more and more of my body. After a few moments, it feels like I'm completely a part of her...")
ShowMessageFace("",0,0,2,5)
ShowMessage("\\n<Luka>Ah, aaah...")
ShowMessageFace("",0,0,2,6)
ShowMessage("I feel her sticky slime pulling at every inch of my body, now touching my bare skin.")
ShowMessageFace("",0,0,2,7)
ShowMessage("The feel of her body against mine makes my penis get erect in seconds. As soon as it gets hard, her sticky slime quickly consumes it.")
ShowMessageFace("slimelord_fc1",1,0,2,8)
ShowMessage("\\n<Bess>Hehe, you're already hard.\nWell then, I'll squeeze out your semen.")
ShowMessageFace("slimelord_fc1",1,0,2,9)
ShowMessage("\\n<Bess>After that, I'll dissolve your body and eat you. ♪\nYour semen... Your body... Everything will be mine. ♪")
ShowMessageFace("",0,0,2,10)
ShowMessage("\\n<Luka>Don't e-eat me...!\nDoing such a thing to your ally...!")
ShowMessageFace("slimelord_fc1",1,0,2,11)
ShowMessage("\\n<Bess>You wanted to feel good didn't you?\nYou'll feel heavenly if I digest you. ♪")
ShowMessageFace("slimelord_fc1",1,0,2,12)
ShowMessage("\\n<Bess>Here, I'll make you come. ♪\nShoot all of that semen out into me. ♪")
ShowMessageFace("",0,0,2,13)
ShowMessage("The sticky slime that's surrounding my body starts to squirm and wriggle all at once.")
ShowMessageFace("",0,0,2,14)
ShowMessage("Her elastic body presses against me from every direction, focusing especially hard against my penis.")
ShowMessageFace("",0,0,2,15)
ShowMessage("She's using her body's properties to make me feel pleasure from everywhere at once...")
ShowMessageFace("",0,0,2,16)
ShowMessage("\\n<Luka>Ahhh!!")
ShowMessageFace("slimelord_fc1",1,0,2,17)
ShowMessage("\\n<Bess>Ehehe... How many seconds will you last?\nWhen I wrap them like this, nobody lasts longer than thirty seconds...")
ShowMessageFace("slimelord_fc1",1,0,2,18)
ShowMessage("\\n<Bess>Hehe, it's time to tease your penis!")
ShowMessageFace("",0,0,2,19)
ShowMessage("Extra dense slime suddenly forms around my penis, and starts to rub against me. It feels almost like an elastic hand is stroking me inside her body.")
ShowMessageFace("",0,0,2,20)
ShowMessage("Each time the slime hand strokes me, other slime rubs around the neck of my penis. At the same time, more slime rubs against my tip and back muscle.")
ShowMessageFace("",0,0,2,21)
ShowMessage("The powerful stimulus brings me near to a climax in only seconds. Tensing my lower body, I manage to stop myself from coming somehow.")
ShowMessageFace("",0,0,2,22)
ShowMessage("\\n<Luka>Ah...")
ShowMessageFace("slimelord_fc1",1,0,2,23)
ShowMessage("\\n<Bess>Even if you hold back, it will come out anyway. ♪\nHere, I'll play with the tip some more. ♪")
ShowMessageFace("",0,0,2,24)
ShowMessage("Her sticky slime wraps around my tip, and squeezes me.\nLosing all of my endurance with that one move, I relax as the climax takes me over.")
ShowMessageFace("",0,0,2,25)
ShowMessage("\\n<Luka>Ahhh!!")
RunCommonEvent(104)
PictureDisplay(5,"ev_slimelord_ha2",0,0,0,0,100,100,255,0)
RunCommonEvent(105)
ShowMessageFace("",0,0,2,26)
ShowMessage("As I spurt inside Bess, I can see my white semen floating through her semi-transparent body.")
ShowMessageFace("",0,0,2,27)
ShowMessage("Seeing the proof of my defeat so clearly only makes my feeling of helplessness all the more powerful.")
ShowMessageFace("",0,0,2,28)
ShowMessage("\\n<Luka>Ah... Urhg...")
ShowMessageFace("",0,0,2,29)
ShowMessage("My white semen is floating in her pink slime...\nUnable to take my eyes off of it, the feeling of misery wells up in me.")
ShowMessageFace("slimelord_fc1",1,0,2,30)
ShowMessage("\\n<Bess>Hehehe, you leaked out a lot.\nYour fresh squeezed semen is now my food. ♪")
ShowMessageFace("slimelord_fc1",1,0,2,31)
ShowMessage("\\n<Bess>It's time to feast on your body itself, too.\nI'll turn your body into mush. ♪")
ShowMessageFace("",0,0,2,32)
ShowMessage("\\n<Luka>Hya! Ahhh!")
If(0,95,0)
 246(2)
 221()
 ShowMessageFace("",0,0,2,33)
 ShowMessage("＊＊＊The rest of the vore scene is being skipped.＊＊＊")
 JumpToLabel("zzz")
 0()
EndIf()
245(bytes(0x04,0x08,0x6f,0x3a,0x0d,0x52,0x50,0x47,0x3a,0x3a,0x42,0x47,0x53,0x08,0x3a,0x0a,0x40,0x6e,0x61,0x6d,0x65,0x49,0x22,0x17,0x6d,0x6f,0x6e,0x5f,0x68,0x73,0x65,0x61,0x6e,0x31,0x39,0x5f,0x73,0x6c,0x69,0x6d,0x65,0x32,0x06,0x3a,0x06,0x45,0x54,0x3a,0x0c,0x40,0x76,0x6f,0x6c,0x75,0x6d,0x65,0x69,0x55,0x3a,0x0b,0x40,0x70,0x69,0x74,0x63,0x68,0x69,0x69))
ShowMessageFace("",0,0,2,34)
ShowMessage("The slime all around me starts to flow and move.\nDifferent from before, now it feels like her whole body is rubbing against me!")
ShowMessageFace("slimelord_fc1",1,0,2,35)
ShowMessage("\\n<Bess>I'm a carnivorous slime...\nThis is how I digest my prey.")
ShowMessageFace("slimelord_fc1",1,0,2,36)
ShowMessage("\\n<Bess>Normally it takes about ten seconds...")
ShowMessageFace("slimelord_fc1",1,0,2,37)
ShowMessage("\\n<Bess>This time, I'll make it special and take a lot of time digesting you. I'll melt you to mush. ♪")
ShowMessageFace("",0,0,2,38)
ShowMessage("\\n<Luka>S...Stop! Ahhh!")
ShowMessageFace("",0,0,2,39)
ShowMessage("The sticky slime crawls all over my body.\nUnlike before, this isn't about pleasure... She's just trying to digest me.")
ShowMessageFace("",0,0,2,40)
ShowMessage("The horror at the thought of slowly being dissolved and digested while alive causes me to panic.")
ShowMessageFace("slimelord_fc1",1,0,2,41)
ShowMessage("\\n<Bess>Horahorahora... I'm even going to dissolve your penis. ♪")
ShowMessageFace("slimelord_fc1",1,0,2,42)
ShowMessage("\\n<Bess>I'll pack lots of slime around it, and...")
ShowMessageFace("",0,0,2,43)
ShowMessage("Dark slime moves toward my penis, and starts to swirl around it. Moving faster and faster, it's like my penis is caught in a whirlpool.")
ShowMessageFace("",0,0,2,44)
ShowMessage("\\n<Luka>Ahhh!!")
ShowMessageFace("",0,0,2,45)
ShowMessage("My body shakes in crazed pleasure.\nEven though she's dissolving me, it feels good...")
ShowMessageFace("slimelord_fc1",1,0,2,46)
ShowMessage("\\n<Bess>Haha... Does it feel good having your penis digested?\nIf you came like this, it would be the lowest of the low...")
ShowMessageFace("",0,0,2,47)
ShowMessage("\\n<Luka>Haa...")
ShowMessageFace("",0,0,2,48)
ShowMessage("The slime torture around my penis gets even more intense. Wrapped by horrifying digestive slime, I can't stop the pleasure from assaulting me.")
ShowMessageFace("",0,0,2,49)
ShowMessage("As it tightens and flows around the tip of my penis, I lose control of myself.")
ShowMessageFace("",0,0,2,50)
ShowMessage("\\n<Luka>Ahh...")
RunCommonEvent(104)
PictureDisplay(5,"ev_slimelord_ha3",0,0,0,0,100,100,255,0)
RunCommonEvent(105)
ShowMessageFace("",0,0,2,51)
ShowMessage("I come by accident while my penis is being dissolved.\nI surrender to the digestive slime.")
ShowMessageFace("",0,0,2,52)
ShowMessage("I come, spraying more of my white semen into her body.")
ShowMessageFace("slimelord_fc1",1,0,2,53)
ShowMessage("\\n<Bess>Ahaha, you came while your penis was being dissolved and digested away! ♪")
ShowMessageFace("",0,0,2,54)
ShowMessage("\\n<Luka>Ahh...")
ShowMessageFace("",0,0,2,55)
ShowMessage("I tremble with misery after coming while being digested.")
ShowMessageFace("",0,0,2,56)
ShowMessage("All during my orgasm, the slime continued rubbing against my body. She's just toying with me as she eats me...")
ShowMessageFace("slimelord_fc1",1,0,2,57)
ShowMessage("\\n<Bess>Haha, isn't it just pathetic?")
ShowMessageFace("slimelord_fc1",1,0,2,58)
ShowMessage("\\n<Bess>You're the great Hero, but you're being eaten by such a weak type of monster like me. ♪")
ShowMessageFace("",0,0,2,59)
ShowMessage("Bess taunts me as her slime rubs against me.\nStuck inside her body, I can't put up any resistance.")
ShowMessageFace("",0,0,2,60)
ShowMessage("\\n<Luka>Urhg...")
ShowMessageFace("",0,0,2,61)
ShowMessage("Tears flow from my eyes as the digestion continues.")
ShowMessageFace("",0,0,2,62)
ShowMessage("The horror at feeling pleasure as I die assaults me, as another climax races through my body.")
RunCommonEvent(104)
RunCommonEvent(105)
ShowMessageFace("",0,0,2,63)
ShowMessage("Semen shoots out of me and floats inside Bess.\nDespite the fact that I feel miserable at the thought of being dissolved, my male instinct rejoices and continues to release my semen.")
ShowMessageFace("",0,0,2,64)
ShowMessage("The misery only intensifies as the pleasure grows stronger.")
ShowMessageFace("",0,0,2,65)
ShowMessage("Unable to stop my male reactions, more semen shoots into the slime as she digests me.")
ShowMessageFace("",0,0,2,66)
ShowMessage("\\n<Luka>Ahh...ah...")
ShowMessageFace("slimelord_fc1",1,0,2,67)
ShowMessage("\\n<Bess>Hahaha, is even your brain melting away inside me?\nYou should be happy to meet your end inside my body. ♪")
ShowMessageFace("",0,0,2,68)
ShowMessage("\\n<Luka>Haa... It feels so good...")
ShowMessageFace("",0,0,2,69)
ShowMessage("I had accepted her predation before I knew it.\nLeaving my body to the sensations, I bask in joy as I dissolve away.")
ShowMessageFace("",0,0,2,70)
ShowMessage("My consciousness slowly fades away into pleasure.\nMy body and mind are dissolving away, to become a part of Bess' body.")
ShowMessageFace("slimelord_fc1",1,0,2,71)
ShowMessage("\\n<Bess>Haha... Your body is delicious. ♪")
ShowMessageFace("",0,0,2,72)
ShowMessage("\\n<Luka>Ah...ah...")
ShowMessageFace("",0,0,2,73)
ShowMessage("My body will melt away and become one with this slime.")
ShowMessageFace("",0,0,2,74)
ShowMessage("While immersed in that joy, my existence is consumed by Bess...")
221()
PictureClear(5)
246(2)
ShowMessageFace("",0,0,2,75)
ShowMessage("......")
DefineLabel("zzz")
242(2)
Wait(120)
ChangeVariable(1002,1002,0,0,0)
216(1)
355("forced_transfer(154,18,52)")
355("release_temp_actors")
355("$game_map.screen.clear")
0()
